<?xml version="1.0" encoding="UTF-8"?>
<session version="1.0">
<refactoring comment="Delete resource &apos;Task1&apos;" deleteContents="true" description="Delete resource &apos;Task1&apos;" element1="/Task1" flags="7" id="org.eclipse.ltk.core.refactoring.delete.resources" resources="1" stamp="1443697027407"/>
</session>