<?xml version="1.0" encoding="UTF-8"?>
<session version="1.0">
<refactoring comment="Rename Java project &apos;task1&apos; to &apos;Task1&apos;&#x0D;&#x0A;- Original element: &apos;task1&apos;&#x0D;&#x0A;- Renamed element: &apos;task1&apos;&#x0D;&#x0A;- Update references to refactored element" description="Rename Java project &apos;task1&apos;" flags="7" id="org.eclipse.jdt.ui.rename.java.project" input="=task1" name="Task1" references="true" stamp="1444040572198" version="1.0"/>
</session>